{
  "rows": [
    {
      "title": "在时光中盛开的女子",
      "money": 45.5,
      "src": "http://p1.bpimg.com/567571/1e7eaa6228789579.jpg"
    },
    {
      "title": "打火机与公主裙",
      "money": 45.5,
      "src": "http://p1.bpimg.com/567571/265e41672d907097.jpg"
    },
    {
      "title": "英文原版Charlotte’s Web (Trophy Newbery)夏洛特的网",
      "money": 45.5,
      "src": "http://p1.bpimg.com/567571/1e7eaa6228789579.jpg"
    },
    {
      "title": "【包邮】 粉红猪小妹的大家庭4册 限量版套装 英文原版 Peppa Pig Family",
      "money": 45.5,
      "src": "http://p1.bpimg.com/567571/265e41672d907097.jpg"
    },
    {
      "title": "【现货】 追风筝的人 英文原版 The Kite Runner 卡勒德胡赛尼著 简装版",
      "money": 45.5,
      "src": "http://p1.bpimg.com/567571/265e41672d907097.jpg"
    },
    {
      "title": "哈利波特英文原版 英文版Harry Potter 哈利波特全套1-7英文原版 哈利波特全集 七本套装 英文原版",
      "money": 45.5,
      "src": "http://p1.bpimg.com/567571/265e41672d907097.jpg"
    },
    {
      "title": "【现货】英文原版 小王子 The Little Prince 老少皆宜的经典英文学习读物 小开本简装",
      "money": 45.5,
      "src": "http://p1.bpimg.com/567571/265e41672d907097.jpg"
    },
    {
      "title": "【现货】无人生还 英文原版小说 And Then There Were None 阿加莎侦探系列",
      "money": 45.5,
      "src": "http://p1.bpimg.com/567571/265e41672d907097.jpg"
    },
    {
      "title": "杀死一只知更鸟 英文原版小说 英文版 英文原版书 To Kill a Mockingbird Harper Lee",
      "money": 45.5,
      "src": "http://p1.bpimg.com/567571/265e41672d907097.jpg"
    },
    {
      "title": "【包邮现货】英文原版Big Book of English Words英语单词大书 纸板书 英语词汇图解 儿童启蒙",
      "money": 45.5,
      "src": "http://p1.bpimg.com/567571/265e41672d907097.jpg"
    },
    {
      "title": "One Day 一天英文原版小说 电影原著 全 英语畅销书籍 外文原版",
      "money": 45.5,
      "src": "http://p1.bpimg.com/567571/265e41672d907097.jpg"
    },
    {
      "title": "【现货】Thinking, Fast and Slow 英文原版 思考快与慢 丹尼尔卡尼曼 诺贝尔奖 又名：快思慢想",
      "money": 45.5,
      "src": "http://p1.bpimg.com/567571/265e41672d907097.jpg"
    }
  ]
}